{
  "project_info": {
    "project_number": "666589737401",
    "firebase_url": "https://ericsson-aio.firebaseio.com",
    "project_id": "ericsson-aio",
    "storage_bucket": "ericsson-aio.appspot.com"
  },
  "client": [
    {
      "client_info": {
        "mobilesdk_app_id": "1:666589737401:android:9dc1e8840cf1e6e0dc4668",
        "android_client_info": {
          "package_name": "com.ericssonaio.eapp"
        }
      },
      "oauth_client": [
        {
          "client_id": "666589737401-rn5d32dsmj1ba0phbkeocq7gehg4m3a4.apps.googleusercontent.com",
          "client_type": 1,
          "android_info": {
            "package_name": "com.ericssonaio.eapp",
            "certificate_hash": "3a106f95868a1f5dbd32c22465b627638f8925bb"
          }
        },
        {
          "client_id": "666589737401-q420n53foi2h0a2847uc6omobisdcehm.apps.googleusercontent.com",
          "client_type": 3
        }
      ],
      "api_key": [
        {
          "current_key": "AIzaSyDWp9PVcU_ToLJ0LbxVaKgfY0l5e4UvDrs"
        }
      ],
      "services": {
        "appinvite_service": {
          "other_platform_oauth_client": [
            {
              "client_id": "666589737401-q420n53foi2h0a2847uc6omobisdcehm.apps.googleusercontent.com",
              "client_type": 3
            }
          ]
        }
      }
    },
    {
      "client_info": {
        "mobilesdk_app_id": "1:666589737401:android:60f95b6562e3a389dc4668",
        "android_client_info": {
          "package_name": "com.ericssonaio.eapp.gt"
        }
      },
      "oauth_client": [
        {
          "client_id": "666589737401-7f128mnoj6m5qlq3556v94k0vn7dbnfl.apps.googleusercontent.com",
          "client_type": 1,
          "android_info": {
            "package_name": "com.ericssonaio.eapp.gt",
            "certificate_hash": "3a106f95868a1f5dbd32c22465b627638f8925bb"
          }
        },
        {
          "client_id": "666589737401-q420n53foi2h0a2847uc6omobisdcehm.apps.googleusercontent.com",
          "client_type": 3
        }
      ],
      "api_key": [
        {
          "current_key": "AIzaSyDWp9PVcU_ToLJ0LbxVaKgfY0l5e4UvDrs"
        }
      ],
      "services": {
        "appinvite_service": {
          "other_platform_oauth_client": [
            {
              "client_id": "666589737401-q420n53foi2h0a2847uc6omobisdcehm.apps.googleusercontent.com",
              "client_type": 3
            }
          ]
        }
      }
    },
    {
      "client_info": {
        "mobilesdk_app_id": "1:666589737401:android:db70c33fb1fe8c0edc4668",
        "android_client_info": {
          "package_name": "com.example.eapp"
        }
      },
      "oauth_client": [
        {
          "client_id": "666589737401-8emq1d9eta46dejb995vib4ri7mte0to.apps.googleusercontent.com",
          "client_type": 1,
          "android_info": {
            "package_name": "com.example.eapp",
            "certificate_hash": "3a106f95868a1f5dbd32c22465b627638f8925bb"
          }
        },
        {
          "client_id": "666589737401-q420n53foi2h0a2847uc6omobisdcehm.apps.googleusercontent.com",
          "client_type": 3
        }
      ],
      "api_key": [
        {
          "current_key": "AIzaSyDWp9PVcU_ToLJ0LbxVaKgfY0l5e4UvDrs"
        }
      ],
      "services": {
        "appinvite_service": {
          "other_platform_oauth_client": [
            {
              "client_id": "666589737401-q420n53foi2h0a2847uc6omobisdcehm.apps.googleusercontent.com",
              "client_type": 3
            }
          ]
        }
      }
    }
  ],
  "configuration_version": "1"
}